VHDL/PriorityEncoder/encoder.vcd
$date
  Fri Jan 20 15:36:44 2017
$end
$version
  GHDL v0
$end
$timescale
  1 fs
$end
$var reg 8 ! input_vector[7:0] $end
$var reg 4 " output_vector[3:0] $end
$scope module dut_instance $end
$var reg 8 # input_vector[7:0] $end
$var reg 4 $ output_vector[3:0] $end
$scope module add_instance $end
$var reg 1 % x7 $end
$var reg 1 & x6 $end
$var reg 1 ' x5 $end
$var reg 1 ( x4 $end
$var reg 1 ) x3 $end
$var reg 1 * x2 $end
$var reg 1 + x1 $end
$var reg 1 , x0 $end
$var reg 1 - s2 $end
$var reg 1 . s1 $end
$var reg 1 / s0 $end
$var reg 1 0 n $end
$upscope $end
$upscope $end
$enddefinitions $end
#0
b00000000 !
b0001 "
b00000000 #
b0001 $
0%
0&
0'
0(
0)
0*
0+
0,
0-
0.
0/
10
#1000000
#5000000
b00001000 !
b0110 "
b00001000 #
b0110 $
1)
1.
1/
00
#6000000
#10000000
b00010000 !
b1000 "
b00010000 #
b1000 $
1(
0)
1-
0.
0/
#11000000
#15000000
b00011000 !
b0110 "
b00011000 #
b0110 $
1)
0-
1.
1/
#16000000
#20000000
b00000100 !
b0100 "
b00000100 #
b0100 $
0(
0)
1*
0/
#21000000
#25000000
b00001100 !
b00001100 #
1)
#26000000
#30000000
b00010100 !
b00010100 #
1(
0)
#31000000
#35000000
b00011100 !
b00011100 #
1)
#36000000
#40000000
b00100000 !
b1010 "
b00100000 #
b1010 $
1'
0(
0)
0*
1-
0.
1/
#41000000
#45000000
b00101000 !
b0110 "
b00101000 #
b0110 $
1)
0-
1.
#46000000
#50000000
b00110000 !
b1000 "
b00110000 #
b1000 $
1(
0)
1-
0.
0/
#51000000
#55000000
b00111000 !
b0110 "
b00111000 #
b0110 $
1)
0-
1.
1/
#56000000
#60000000
b00100100 !
b0100 "
b00100100 #
b0100 $
0(
0)
1*
0/
#61000000
#65000000
b00101100 !
b00101100 #
1)
#66000000
#70000000
b00110100 !
b00110100 #
1(
0)
#71000000
#75000000
b00111100 !
b00111100 #
1)
#76000000
#80000000
b00000010 !
b0010 "
b00000010 #
b0010 $
0'
0(
0)
0*
1+
0.
1/
#81000000
#85000000
b00001010 !
b00001010 #
1)
#86000000
#90000000
b00010010 !
b00010010 #
1(
0)
#91000000
#95000000
b00011010 !
b00011010 #
1)
#96000000
#100000000
b00000110 !
b00000110 #
0(
0)
1*
#101000000
#105000000
b00001110 !
b00001110 #
1)
#106000000
#110000000
b00010110 !
b00010110 #
1(
0)
#111000000
#115000000
b00011110 !
b00011110 #
1)
#116000000
#120000000
b00100010 !
b00100010 #
1'
0(
0)
0*
#121000000
#125000000
b00101010 !
b00101010 #
1)
#126000000
#130000000
b00110010 !
b00110010 #
1(
0)
#131000000
#135000000
b00111010 !
b00111010 #
1)
#136000000
#140000000
b00100110 !
b00100110 #
0(
0)
1*
#141000000
#145000000
b00101110 !
b00101110 #
1)
#146000000
#150000000
b00110110 !
b00110110 #
1(
0)
#151000000
#155000000
b00111110 !
b00111110 #
1)
#156000000
#160000000
b01000000 !
b1100 "
b01000000 #
b1100 $
1&
0'
0(
0)
0*
0+
1-
1.
0/
#161000000
#165000000
b01001000 !
b0110 "
b01001000 #
b0110 $
1)
0-
1/
#166000000
#170000000
b01010000 !
b1000 "
b01010000 #
b1000 $
1(
0)
1-
0.
0/
#171000000
#175000000
b01011000 !
b0110 "
b01011000 #
b0110 $
1)
0-
1.
1/
#176000000
#180000000
b01000100 !
b0100 "
b01000100 #
b0100 $
0(
0)
1*
0/
#181000000
#185000000
b01001100 !
b01001100 #
1)
#186000000
#190000000
b01010100 !
b01010100 #
1(
0)
#191000000
#195000000
b01011100 !
b01011100 #
1)
#196000000
#200000000
b01100000 !
b1010 "
b01100000 #
b1010 $
1'
0(
0)
0*
1-
0.
1/
#201000000
#205000000
b01101000 !
b0110 "
b01101000 #
b0110 $
1)
0-
1.
#206000000
#210000000
b01110000 !
b1000 "
b01110000 #
b1000 $
1(
0)
1-
0.
0/
#211000000
#215000000
b01111000 !
b0110 "
b01111000 #
b0110 $
1)
0-
1.
1/
#216000000
#220000000
b01100100 !
b0100 "
b01100100 #
b0100 $
0(
0)
1*
0/
#221000000
#225000000
b01101100 !
b01101100 #
1)
#226000000
#230000000
b01110100 !
b01110100 #
1(
0)
#231000000
#235000000
b01111100 !
b01111100 #
1)
#236000000
#240000000
b01000010 !
b0010 "
b01000010 #
b0010 $
0'
0(
0)
0*
1+
0.
1/
#241000000
#245000000
b01001010 !
b01001010 #
1)
#246000000
#250000000
b01010010 !
b01010010 #
1(
0)
#251000000
#255000000
b01011010 !
b01011010 #
1)
#256000000
#260000000
b01000110 !
b01000110 #
0(
0)
1*
#261000000
#265000000
b01001110 !
b01001110 #
1)
#266000000
#270000000
b01010110 !
b01010110 #
1(
0)
#271000000
#275000000
b01011110 !
b01011110 #
1)
#276000000
#280000000
b01100010 !
b01100010 #
1'
0(
0)
0*
#281000000
#285000000
b01101010 !
b01101010 #
1)
#286000000
#290000000
b01110010 !
b01110010 #
1(
0)
#291000000
#295000000
b01111010 !
b01111010 #
1)
#296000000
#300000000
b01100110 !
b01100110 #
0(
0)
1*
#301000000
#305000000
b01101110 !
b01101110 #
1)
#306000000
#310000000
b01110110 !
b01110110 #
1(
0)
#311000000
#315000000
b01111110 !
b01111110 #
1)
#316000000
#320000000
b00000001 !
b0000 "
b00000001 #
b0000 $
0&
0'
0(
0)
0*
0+
1,
0/
#321000000
#325000000
b00001001 !
b00001001 #
1)
#326000000
#330000000
b00010001 !
b00010001 #
1(
0)
#331000000
#335000000
b00011001 !
b00011001 #
1)
#336000000
#340000000
b00000101 !
b00000101 #
0(
0)
1*
#341000000
#345000000
b00001101 !
b00001101 #
1)
#346000000
#350000000
b00010101 !
b00010101 #
1(
0)
#351000000
#355000000
b00011101 !
b00011101 #
1)
#356000000
#360000000
b00100001 !
b00100001 #
1'
0(
0)
0*
#361000000
#365000000
b00101001 !
b00101001 #
1)
#366000000
#370000000
b00110001 !
b00110001 #
1(
0)
#371000000
#375000000
b00111001 !
b00111001 #
1)
#376000000
#380000000
b00100101 !
b00100101 #
0(
0)
1*
#381000000
#385000000
b00101101 !
b00101101 #
1)
#386000000
#390000000
b00110101 !
b00110101 #
1(
0)
#391000000
#395000000
b00111101 !
b00111101 #
1)
#396000000
#400000000
b00000011 !
b00000011 #
0'
0(
0)
0*
1+
#401000000
#405000000
b00001011 !
b00001011 #
1)
#406000000
#410000000
b00010011 !
b00010011 #
1(
0)
#411000000
#415000000
b00011011 !
b00011011 #
1)
#416000000
#420000000
b00000111 !
b00000111 #
0(
0)
1*
#421000000
#425000000
b00001111 !
b00001111 #
1)
#426000000
#430000000
b00010111 !
b00010111 #
1(
0)
#431000000
#435000000
b00011111 !
b00011111 #
1)
#436000000
#440000000
b00100011 !
b00100011 #
1'
0(
0)
0*
#441000000
#445000000
b00101011 !
b00101011 #
1)
#446000000
#450000000
b00110011 !
b00110011 #
1(
0)
#451000000
#455000000
b00111011 !
b00111011 #
1)
#456000000
#460000000
b00100111 !
b00100111 #
0(
0)
1*
#461000000
#465000000
b00101111 !
b00101111 #
1)
#466000000
#470000000
b00110111 !
b00110111 #
1(
0)
#471000000
#475000000
b00111111 !
b00111111 #
1)
#476000000
#480000000
b01000001 !
b01000001 #
1&
0'
0(
0)
0*
0+
#481000000
#485000000
b01001001 !
b01001001 #
1)
#486000000
#490000000
b01010001 !
b01010001 #
1(
0)
#491000000
#495000000
b01011001 !
b01011001 #
1)
#496000000
#500000000
b01000101 !
b01000101 #
0(
0)
1*
#501000000
#505000000
b01001101 !
b01001101 #
1)
#506000000
#510000000
b01010101 !
b01010101 #
1(
0)
#511000000
#515000000
b01011101 !
b01011101 #
1)
#516000000
#520000000
b01100001 !
b01100001 #
1'
0(
0)
0*
#521000000
#525000000
b01101001 !
b01101001 #
1)
#526000000
#530000000
b01110001 !
b01110001 #
1(
0)
#531000000
#535000000
b01111001 !
b01111001 #
1)
#536000000
#540000000
b01100101 !
b01100101 #
0(
0)
1*
#541000000
#545000000
b01101101 !
b01101101 #
1)
#546000000
#550000000
b01110101 !
b01110101 #
1(
0)
#551000000
#555000000
b01111101 !
b01111101 #
1)
#556000000
#560000000
b01000011 !
b01000011 #
0'
0(
0)
0*
1+
#561000000
#565000000
b01001011 !
b01001011 #
1)
#566000000
#570000000
b01010011 !
b01010011 #
1(
0)
#571000000
#575000000
b01011011 !
b01011011 #
1)
#576000000
#580000000
b01000111 !
b01000111 #
0(
0)
1*
#581000000
#585000000
b01001111 !
b01001111 #
1)
#586000000
#590000000
b01010111 !
b01010111 #
1(
0)
#591000000
#595000000
b01011111 !
b01011111 #
1)
#596000000
#600000000
b01100011 !
b01100011 #
1'
0(
0)
0*
#601000000
#605000000
b01101011 !
b01101011 #
1)
#606000000
#610000000
b01110011 !
b01110011 #
1(
0)
#611000000
#615000000
b01111011 !
b01111011 #
1)
#616000000
#620000000
b01100111 !
b01100111 #
0(
0)
1*
#621000000
#625000000
b01101111 !
b01101111 #
1)
#626000000
#630000000
b01110111 !
b01110111 #
1(
0)
#631000000
#635000000
b01111111 !
b01111111 #
1)
#636000000
#640000000
b10000000 !
b1110 "
b10000000 #
b1110 $
1%
0&
0'
0(
0)
0*
0+
0,
1-
1.
1/
#641000000
#645000000
b10001000 !
b0110 "
b10001000 #
b0110 $
1)
0-
#646000000
#650000000
b10010000 !
b1000 "
b10010000 #
b1000 $
1(
0)
1-
0.
0/
#651000000
#655000000
b10011000 !
b0110 "
b10011000 #
b0110 $
1)
0-
1.
1/
#656000000
#660000000
b10000100 !
b0100 "
b10000100 #
b0100 $
0(
0)
1*
0/
#661000000
#665000000
b10001100 !
b10001100 #
1)
#666000000
#670000000
b10010100 !
b10010100 #
1(
0)
#671000000
#675000000
b10011100 !
b10011100 #
1)
#676000000
#680000000
b10100000 !
b1010 "
b10100000 #
b1010 $
1'
0(
0)
0*
1-
0.
1/
#681000000
#685000000
b10101000 !
b0110 "
b10101000 #
b0110 $
1)
0-
1.
#686000000
#690000000
b10110000 !
b1000 "
b10110000 #
b1000 $
1(
0)
1-
0.
0/
#691000000
#695000000
b10111000 !
b0110 "
b10111000 #
b0110 $
1)
0-
1.
1/
#696000000
#700000000
b10100100 !
b0100 "
b10100100 #
b0100 $
0(
0)
1*
0/
#701000000
#705000000
b10101100 !
b10101100 #
1)
#706000000
#710000000
b10110100 !
b10110100 #
1(
0)
#711000000
#715000000
b10111100 !
b10111100 #
1)
#716000000
#720000000
b10000010 !
b0010 "
b10000010 #
b0010 $
0'
0(
0)
0*
1+
0.
1/
#721000000
#725000000
b10001010 !
b10001010 #
1)
#726000000
#730000000
b10010010 !
b10010010 #
1(
0)
#731000000
#735000000
b10011010 !
b10011010 #
1)
#736000000
#740000000
b10000110 !
b10000110 #
0(
0)
1*
#741000000
#745000000
b10001110 !
b10001110 #
1)
#746000000
#750000000
b10010110 !
b10010110 #
1(
0)
#751000000
#755000000
b10011110 !
b10011110 #
1)
#756000000
#760000000
b10100010 !
b10100010 #
1'
0(
0)
0*
#761000000
#765000000
b10101010 !
b10101010 #
1)
#766000000
#770000000
b10110010 !
b10110010 #
1(
0)
#771000000
#775000000
b10111010 !
b10111010 #
1)
#776000000
#780000000
b10100110 !
b10100110 #
0(
0)
1*
#781000000
#785000000
b10101110 !
b10101110 #
1)
#786000000
#790000000
b10110110 !
b10110110 #
1(
0)
#791000000
#795000000
b10111110 !
b10111110 #
1)
#796000000
#800000000
b11000000 !
b1100 "
b11000000 #
b1100 $
1&
0'
0(
0)
0*
0+
1-
1.
0/
#801000000
#805000000
b11001000 !
b0110 "
b11001000 #
b0110 $
1)
0-
1/
#806000000
#810000000
b11010000 !
b1000 "
b11010000 #
b1000 $
1(
0)
1-
0.
0/
#811000000
#815000000
b11011000 !
b0110 "
b11011000 #
b0110 $
1)
0-
1.
1/
#816000000
#820000000
b11000100 !
b0100 "
b11000100 #
b0100 $
0(
0)
1*
0/
#821000000
#825000000
b11001100 !
b11001100 #
1)
#826000000
#830000000
b11010100 !
b11010100 #
1(
0)
#831000000
#835000000
b11011100 !
b11011100 #
1)
#836000000
#840000000
b11100000 !
b1010 "
b11100000 #
b1010 $
1'
0(
0)
0*
1-
0.
1/
#841000000
#845000000
b11101000 !
b0110 "
b11101000 #
b0110 $
1)
0-
1.
#846000000
#850000000
b11110000 !
b1000 "
b11110000 #
b1000 $
1(
0)
1-
0.
0/
#851000000
#855000000
b11111000 !
b0110 "
b11111000 #
b0110 $
1)
0-
1.
1/
#856000000
#860000000
b11100100 !
b0100 "
b11100100 #
b0100 $
0(
0)
1*
0/
#861000000
#865000000
b11101100 !
b11101100 #
1)
#866000000
#870000000
b11110100 !
b11110100 #
1(
0)
#871000000
#875000000
b11111100 !
b11111100 #
1)
#876000000
#880000000
b11000010 !
b0010 "
b11000010 #
b0010 $
0'
0(
0)
0*
1+
0.
1/
#881000000
#885000000
b11001010 !
b11001010 #
1)
#886000000
#890000000
b11010010 !
b11010010 #
1(
0)
#891000000
#895000000
b11011010 !
b11011010 #
1)
#896000000
#900000000
b11000110 !
b11000110 #
0(
0)
1*
#901000000
#905000000
b11001110 !
b11001110 #
1)
#906000000
#910000000
b11010110 !
b11010110 #
1(
0)
#911000000
#915000000
b11011110 !
b11011110 #
1)
#916000000
#920000000
b11100010 !
b11100010 #
1'
0(
0)
0*
#921000000
#925000000
b11101010 !
b11101010 #
1)
#926000000
#930000000
b11110010 !
b11110010 #
1(
0)
#931000000
#935000000
b11111010 !
b11111010 #
1)
#936000000
#940000000
b11100110 !
b11100110 #
0(
0)
1*
#941000000
#945000000
b11101110 !
b11101110 #
1)
#946000000
#950000000
b11110110 !
b11110110 #
1(
0)
#951000000
#955000000
b11111110 !
b11111110 #
1)
#956000000
#960000000
b10000001 !
b0000 "
b10000001 #
b0000 $
0&
0'
0(
0)
0*
0+
1,
0/
#961000000
#965000000
b10001001 !
b10001001 #
1)
#966000000
#970000000
b10010001 !
b10010001 #
1(
0)
#971000000
#975000000
b10011001 !
b10011001 #
1)
#976000000
#980000000
b10000101 !
b10000101 #
0(
0)
1*
#981000000
#985000000
b10001101 !
b10001101 #
1)
#986000000
#990000000
b10010101 !
b10010101 #
1(
0)
#991000000
#995000000
b10011101 !
b10011101 #
1)
#996000000
#1000000000
b10100001 !
b10100001 #
1'
0(
0)
0*
